{
  "globalDependencies": {
    "react": "registry:dt/react#0.14.0+20160602151522",
    "react-dom": "registry:dt/react-dom#0.14.0+20160412154040",
    "google.maps": "github:DefinitelyTyped/DefinitelyTyped/googlemaps/google.maps.d.ts"
  },
  "dependencies": {
    "chart.js": "registry:npm/chart.js#2.1.4+20160615174920"
  }
}
